[
  {
    "id": 1,
    "code_number_subject": "KTLT",
    "code_number_department": "KTCN",
    "code_number_class": "D16HT01",
    "code_number_school_year": 1,
    "code_number_teacher": "GV001",
    "name": "Kỹ thuật lập trình",
    "count_credit": 3,
    "created_at": "2019-07-25T06:03:55Z",
    "updated_at": "2019-07-25T06:03:55Z"
  },
  {
    "id": 2,
    "code_number_subject": "LTW",
    "code_number_department": "KTCN",
    "code_number_class": "D16HT01",
    "code_number_school_year": 1,
    "code_number_teacher": "GV002",
    "name": "Lập trình web",
    "count_credit": 2,
    "created_at": "2019-07-25T06:03:55Z",
    "updated_at": "2019-07-25T06:03:55Z"
  },
  {
    "id": 3,
    "code_number_subject": "NNNM",
    "code_number_department": "KTCN",
    "code_number_class": "D16HT01",
    "code_number_school_year": 1,
    "code_number_teacher": "GV002",
    "name": "Ngoại Ngữ Nhập Môn",
    "count_credit": 2,
    "created_at": "2019-07-25T06:03:55Z",
    "updated_at": "2019-07-25T06:03:55Z"
  }
]